{"meta": {
	"decimals": 4,
	"query": {
		"type": "m",
		"limit": "20",
		"sort": "vlt"
	},
	"source": "worm",
	"created": "2015-09-27T17:58:12.128Z"
}, "data": [
	{
		"name": "achc",
		"sequence": [0.0262, 0.0353, 0.0283, 0.0262, 0.0167, 0.0172, 0.0146, 0.0111, 0.0071, 0.0045, 0.0015, 0, 0.0053, 0.0038, 0.001, 0.0043, 0.0041, 0.0035, 0.003, 0.0061, 0.0038, 0.0061, 0.0038, 0.004, 0.0041, 0.004, 0.004, 0.007, 0.0085, 0.0107, 0.0086, 0.0103, 0.0101, 0.0101, 0.0091, 0.0112, 0.0109, 0.0107, 0.013, 0.0115, 0.0101, 0.0104, 0.0115, 0.0111, 0.0119, 0.0122, 0.018, 0.0204, 0.0227, 0.0182, 0.0198, 0.0166, 0.0146, 0.0159, 0.0167, 0.0149, 0.0175, 0.0199, 0.0225, 0.0212, 0.0243, 0.0277, 0.0304, 0.0303, 0.0301, 0.0388, 0.0448, 0.0371, 0.044, 0.0392, 0.0343, 0.0316, 0.0335, 0.0327, 0.0351, 0.0332, 0.0335, 0.0335, 0.0361, 0.0319, 0.0327, 0.0311, 0.034, 0.0493, 0.048, 0.0585, 0.0505, 0.0488, 0.0513, 0.0472, 0.0464, 0.0472, 0.044, 0.0464, 0.0432, 0.0464, 0.0464, 0.0392, 0.0432, 0.0437, 0.0456, 0.0448, 0.0398, 0.0375, 0.038, 0.0364, 0.0295, 0.0182, 0.0198, 0.0172, 0.0109, 0.0101, 0.0125, 0.0166, 0.0206, 0.0245, 0.0212, 0.0177, 0.0145, 0.0159, 0.0162, 0.0177, 0.018, 0.0187, 0.0185, 0.0169, 0.0166, 0.0164, 0.0183, 0.019, 0.0199, 0.0224, 0.0249, 0.0327, 0.0345, 0.0406, 0.0371, 0.0495, 0.0513, 0.0432, 0.0363, 0.0361, 0.0295, 0.1352, 0.159, 0.1958, 0.2239, 0.2612, 0.2557, 0.287, 0.2812, 0.2586, 0.3077, 0.3828, 0.3302, 0.3686, 0.3751, 0.4109, 0.4375, 0.4726, 0.5075, 0.5372, 0.532, 0.5934, 0.617, 0.6347, 0.6992, 0.744, 0.7623, 0.8222, 0.7964, 0.7266, 0.6765, 0.6866, 0.7327, 0.7676, 0.8249, 0.7812, 1, 0.9994, 0.9864]
	},
	{
		"name": "yhoo",
		"sequence": [1, 0.4816, 0.519, 0.3877, 0.3328, 0.3673, 0.3827, 0.3597, 0.2624, 0.159, 0.0984, 0.0678, 0.091, 0.0479, 0.0222, 0.0363, 0.0297, 0.0357, 0.0281, 0.0097, 0, 0.0066, 0.0216, 0.0285, 0.0269, 0.018, 0.0308, 0.019, 0.023, 0.019, 0.0139, 0.0047, 0.0024, 0.0195, 0.0302, 0.0241, 0.03, 0.0384, 0.0486, 0.0509, 0.0671, 0.0763, 0.0713, 0.0785, 0.0849, 0.1114, 0.1091, 0.1156, 0.1219, 0.1134, 0.1266, 0.1332, 0.0698, 0.0881, 0.0702, 0.0629, 0.0801, 0.0874, 0.092, 0.0922, 0.0843, 0.0749, 0.0801, 0.082, 0.0906, 0.0825, 0.0783, 0.0782, 0.0799, 0.0899, 0.1003, 0.097, 0.0816, 0.0742, 0.0749, 0.0765, 0.0727, 0.0772, 0.0585, 0.0639, 0.0526, 0.056, 0.0581, 0.0534, 0.0623, 0.0704, 0.0718, 0.0614, 0.0635, 0.0585, 0.0461, 0.0444, 0.0576, 0.0712, 0.0575, 0.0461, 0.0461, 0.0331, 0.0606, 0.0642, 0.0594, 0.0573, 0.0378, 0.0354, 0.0337, 0.0271, 0.0128, 0.0086, 0.0108, 0.0093, 0.0141, 0.0128, 0.0175, 0.0224, 0.0219, 0.0176, 0.0185, 0.0287, 0.0226, 0.0197, 0.0254, 0.0198, 0.0208, 0.0246, 0.0246, 0.0208, 0.0161, 0.0162, 0.0137, 0.0171, 0.0245, 0.0224, 0.025, 0.0233, 0.0242, 0.0251, 0.0284, 0.0247, 0.0199, 0.0137, 0.0153, 0.0139, 0.0218, 0.022, 0.0234, 0.0213, 0.0192, 0.0205, 0.0215, 0.0205, 0.0224, 0.0224, 0.0186, 0.0229, 0.0256, 0.0318, 0.0354, 0.0345, 0.0399, 0.047, 0.0508, 0.0558, 0.0521, 0.0615, 0.0585, 0.0778, 0.077, 0.0899, 0.101, 0.0868, 0.0953, 0.0865, 0.0866, 0.0825, 0.084, 0.0862, 0.0948, 0.102, 0.1189, 0.137, 0.1331]
	},
	{
		"name": "armh",
		"sequence": [0.8068, 1, 0.7584, 0.127, 0.1016, 0.1319, 0.1381, 0.1665, 0.1322, 0.1195, 0.0689, 0.0873, 0.0895, 0.047, 0.0492, 0.0576, 0.0525, 0.0412, 0.0432, 0.0435, 0.0354, 0.0563, 0.0601, 0.0572, 0.0518, 0.0414, 0.0432, 0.0317, 0.0241, 0.0179, 0.0204, 0.021, 0.0153, 0.0016, 0.0039, 0.0011, 0, 0.0007, 0.0003, 0.0031, 0.0068, 0.0044, 0.0085, 0.0134, 0.0109, 0.0148, 0.0166, 0.0196, 0.0192, 0.0191, 0.0179, 0.0164, 0.0174, 0.0185, 0.015, 0.0084, 0.0095, 0.0129, 0.015, 0.0165, 0.0136, 0.0165, 0.0157, 0.0131, 0.0155, 0.0163, 0.0172, 0.017, 0.0169, 0.0146, 0.017, 0.0166, 0.0205, 0.0209, 0.0195, 0.0218, 0.0183, 0.0168, 0.0178, 0.0192, 0.0181, 0.0181, 0.0205, 0.0213, 0.0211, 0.0223, 0.0237, 0.0243, 0.0256, 0.0276, 0.0282, 0.0283, 0.0304, 0.0299, 0.0253, 0.0218, 0.0218, 0.0204, 0.0131, 0.0125, 0.0155, 0.0167, 0.0118, 0.0143, 0.0162, 0.0122, 0.0102, 0.009, 0.0064, 0.0071, 0.0079, 0.0089, 0.0127, 0.0125, 0.0156, 0.0174, 0.0172, 0.02, 0.0212, 0.0231, 0.0268, 0.029, 0.0299, 0.0359, 0.0392, 0.0362, 0.0434, 0.0566, 0.062, 0.0709, 0.0662, 0.0708, 0.0795, 0.098, 0.1206, 0.1116, 0.1258, 0.1132, 0.1127, 0.1142, 0.109, 0.1, 0.1112, 0.112, 0.1094, 0.1146, 0.1073, 0.1121, 0.0993, 0.0913, 0.0926, 0.1021, 0.1075, 0.1107, 0.1296, 0.1511, 0.1533, 0.1673, 0.1779, 0.173, 0.1919, 0.1795, 0.1464, 0.1634, 0.165, 0.1978, 0.1939, 0.2055, 0.2264, 0.189, 0.2068, 0.2102, 0.1866, 0.1895, 0.1854, 0.1747, 0.1996, 0.1787, 0.1744, 0.175, 0.19]
	},
	{
		"name": "nok",
		"sequence": [0.8318, 0.8931, 1, 0.2455, 0.227, 0.2202, 0.1907, 0.1941, 0.1764, 0.185, 0.185, 0.1884, 0.1468, 0.0906, 0.0997, 0.146, 0.1235, 0.0915, 0.0898, 0.0622, 0.0617, 0.0838, 0.0952, 0.1021, 0.0972, 0.085, 0.0849, 0.0645, 0.0537, 0.0564, 0.047, 0.051, 0.0508, 0.0662, 0.0779, 0.0611, 0.056, 0.0507, 0.0543, 0.0659, 0.0726, 0.0653, 0.0602, 0.0647, 0.0615, 0.0678, 0.0723, 0.0679, 0.0845, 0.0896, 0.0828, 0.0543, 0.0531, 0.0567, 0.0434, 0.0446, 0.053, 0.0607, 0.0641, 0.0618, 0.0601, 0.064, 0.0607, 0.0632, 0.0672, 0.0662, 0.0631, 0.0623, 0.0675, 0.0671, 0.0682, 0.0738, 0.0742, 0.0751, 0.0848, 0.0936, 0.0882, 0.0827, 0.0808, 0.0855, 0.0801, 0.081, 0.0825, 0.083, 0.0911, 0.0898, 0.0948, 0.1054, 0.1151, 0.1184, 0.1208, 0.1401, 0.1631, 0.1712, 0.1694, 0.1651, 0.1651, 0.1574, 0.1543, 0.1353, 0.1273, 0.1197, 0.102, 0.1148, 0.105, 0.0754, 0.0596, 0.055, 0.0615, 0.0464, 0.0331, 0.0437, 0.0549, 0.0602, 0.0569, 0.0512, 0.0543, 0.0571, 0.0479, 0.0509, 0.049, 0.0528, 0.0518, 0.0612, 0.0459, 0.0366, 0.0276, 0.0338, 0.0295, 0.0362, 0.0392, 0.0326, 0.0375, 0.0392, 0.0298, 0.0293, 0.0326, 0.0225, 0.0198, 0.017, 0.0199, 0.0163, 0.0212, 0.0169, 0.0125, 0.0135, 0.0146, 0.0156, 0.0072, 0.0027, 0, 0.0085, 0.0034, 0.0023, 0.0027, 0.0054, 0.0085, 0.0084, 0.0072, 0.0055, 0.006, 0.0062, 0.0076, 0.0085, 0.0083, 0.0202, 0.0253, 0.0272, 0.0275, 0.0221, 0.0251, 0.024, 0.0247, 0.0276, 0.025, 0.0266, 0.0286, 0.0291, 0.0282, 0.0281, 0.0263]
	},
	{
		"name": "shw",
		"sequence": [0, 0.0061, 0.0183, 0.0295, 0.0229, 0.0145, 0.013, 0.022, 0.0153, 0.0166, 0.0171, 0.0354, 0.0376, 0.0305, 0.032, 0.0137, 0.0151, 0.0186, 0.0215, 0.0205, 0.0187, 0.0274, 0.0422, 0.0402, 0.0411, 0.0358, 0.0442, 0.0534, 0.0569, 0.0501, 0.0452, 0.0382, 0.0247, 0.0396, 0.0457, 0.0433, 0.0367, 0.037, 0.0359, 0.0418, 0.0397, 0.0377, 0.0504, 0.0508, 0.048, 0.0648, 0.0603, 0.0697, 0.0657, 0.0708, 0.0848, 0.0832, 0.0883, 0.0975, 0.0927, 0.0965, 0.1073, 0.1023, 0.1099, 0.11, 0.1042, 0.1087, 0.1074, 0.1098, 0.1093, 0.1201, 0.1222, 0.1171, 0.1078, 0.1016, 0.1068, 0.1133, 0.1437, 0.1138, 0.1296, 0.1357, 0.1253, 0.1217, 0.1344, 0.1386, 0.1555, 0.1695, 0.1831, 0.1873, 0.2097, 0.1994, 0.1973, 0.188, 0.2038, 0.199, 0.2122, 0.2094, 0.1959, 0.1886, 0.1842, 0.1647, 0.1647, 0.1608, 0.1392, 0.1362, 0.1536, 0.157, 0.1153, 0.1452, 0.1668, 0.1611, 0.1601, 0.1683, 0.1716, 0.1228, 0.1154, 0.1399, 0.159, 0.1433, 0.1472, 0.1635, 0.1735, 0.1733, 0.1606, 0.1761, 0.1794, 0.1863, 0.1864, 0.204, 0.2463, 0.2404, 0.2101, 0.21, 0.215, 0.2344, 0.2255, 0.2304, 0.2694, 0.2734, 0.2628, 0.2704, 0.2635, 0.2861, 0.2699, 0.2426, 0.2368, 0.231, 0.2652, 0.282, 0.2919, 0.3256, 0.3485, 0.371, 0.4183, 0.4564, 0.4675, 0.4756, 0.5112, 0.535, 0.5092, 0.5497, 0.555, 0.5889, 0.5866, 0.6164, 0.6743, 0.6964, 0.6478, 0.6379, 0.6307, 0.6705, 0.6942, 0.674, 0.6759, 0.6749, 0.7451, 0.7314, 0.7425, 0.7619, 0.7713, 0.7685, 0.8169, 0.8205, 0.8636, 0.9259, 1]
	},
	{
		"name": "jdsu",
		"sequence": [0.7723, 1, 0.4543, 0.3899, 0.33, 0.4516, 0.445, 0.4692, 0.3556, 0.305, 0.1853, 0.1534, 0.2034, 0.0964, 0.0647, 0.076, 0.0581, 0.042, 0.0296, 0.0212, 0.0185, 0.0248, 0.0328, 0.0275, 0.0211, 0.0129, 0.0168, 0.0109, 0.0077, 0.0045, 0.004, 0.0046, 0.0018, 0.0029, 0.0074, 0.0038, 0.0047, 0.0053, 0.0052, 0.0067, 0.0088, 0.0077, 0.0058, 0.0075, 0.0081, 0.0078, 0.0075, 0.0082, 0.0138, 0.0128, 0.0099, 0.0059, 0.0072, 0.0088, 0.0075, 0.0062, 0.0072, 0.0064, 0.0064, 0.0064, 0.0026, 0.0016, 0.0007, 0, 0.0002, 0.0002, 0.0001, 0.0004, 0.0028, 0.0024, 0.0042, 0.0034, 0.0063, 0.006, 0.0103, 0.0077, 0.0059, 0.004, 0.0025, 0.003, 0.0027, 0.0498, 0.0648, 0.0579, 0.0622, 0.0562, 0.0525, 0.0572, 0.0443, 0.0456, 0.049, 0.0499, 0.0514, 0.0526, 0.0457, 0.0451, 0.0451, 0.0341, 0.0445, 0.0454, 0.0489, 0.0415, 0.0377, 0.036, 0.0331, 0.0267, 0.0152, 0.0047, 0.0083, 0.0082, 0.0049, 0.0068, 0.0119, 0.0149, 0.0162, 0.0167, 0.0206, 0.0215, 0.0157, 0.0225, 0.0258, 0.0243, 0.0353, 0.0421, 0.044, 0.0382, 0.0319, 0.0357, 0.0294, 0.0416, 0.0344, 0.0396, 0.0496, 0.0591, 0.0885, 0.0739, 0.0739, 0.0714, 0.0579, 0.0445, 0.0438, 0.0324, 0.0401, 0.0362, 0.0342, 0.0428, 0.0441, 0.0496, 0.0408, 0.0331, 0.0363, 0.0319, 0.037, 0.0416, 0.0314, 0.0406, 0.0459, 0.0497, 0.0484, 0.0454, 0.0459, 0.0463, 0.0492, 0.0503, 0.0433, 0.0505, 0.0443, 0.0407, 0.0439, 0.0451, 0.0469, 0.0478, 0.0427, 0.0362, 0.0419, 0.0396, 0.0384, 0.0432, 0.0457, 0.0452, 0.0467]
	},
	{
		"name": "pmcs",
		"sequence": [0.7609, 0.815, 0.8608, 0.8099, 0.6435, 0.7488, 0.8183, 1, 0.9106, 0.7135, 0.3804, 0.322, 0.3088, 0.1276, 0.0899, 0.1627, 0.1181, 0.1171, 0.1139, 0.1158, 0.0275, 0.0532, 0.0815, 0.0749, 0.0861, 0.0462, 0.0534, 0.0503, 0.0445, 0.0232, 0.0244, 0.0135, 0, 0.0043, 0.0185, 0.0072, 0.007, 0.0077, 0.0089, 0.0189, 0.0301, 0.0338, 0.0361, 0.0447, 0.0401, 0.0616, 0.071, 0.0699, 0.0774, 0.069, 0.0564, 0.0356, 0.044, 0.0451, 0.0345, 0.0235, 0.0212, 0.0275, 0.0308, 0.0318, 0.0275, 0.0262, 0.0212, 0.018, 0.0211, 0.0235, 0.0257, 0.0198, 0.0212, 0.0139, 0.0172, 0.0165, 0.024, 0.0273, 0.0362, 0.0368, 0.0248, 0.0238, 0.0053, 0.0128, 0.0089, 0.0118, 0.0161, 0.0122, 0.0104, 0.0124, 0.0135, 0.0166, 0.0165, 0.0166, 0.0161, 0.0164, 0.0194, 0.0221, 0.0135, 0.0115, 0.0115, 0.0035, 0.0039, 0.0078, 0.0168, 0.0199, 0.0162, 0.0145, 0.0221, 0.0153, 0.0034, 0.0006, 0.0042, 0.0043, 0.0053, 0.0107, 0.0174, 0.016, 0.0176, 0.0227, 0.0224, 0.0245, 0.02, 0.0174, 0.0206, 0.0175, 0.019, 0.0217, 0.0214, 0.0182, 0.0157, 0.0182, 0.0131, 0.015, 0.0164, 0.0145, 0.0203, 0.017, 0.0173, 0.0156, 0.0178, 0.0171, 0.0159, 0.0134, 0.0095, 0.009, 0.0106, 0.0074, 0.007, 0.0113, 0.0129, 0.0144, 0.0137, 0.0108, 0.0097, 0.0062, 0.0085, 0.0075, 0.0035, 0.0055, 0.0057, 0.0082, 0.0112, 0.0125, 0.0081, 0.0092, 0.0107, 0.0118, 0.0101, 0.0118, 0.0085, 0.0091, 0.011, 0.0115, 0.0149, 0.0161, 0.0128, 0.0137, 0.0161, 0.0123, 0.0151, 0.0154, 0.0168, 0.0184, 0.0227]
	},
	{
		"name": "sne",
		"sequence": [0.8008, 1, 0.8901, 0.7107, 0.2681, 0.2784, 0.2772, 0.3441, 0.3002, 0.2412, 0.2132, 0.1967, 0.2101, 0.2034, 0.2058, 0.2203, 0.225, 0.1846, 0.131, 0.1157, 0.0772, 0.0937, 0.125, 0.1164, 0.1153, 0.12, 0.1381, 0.1464, 0.1592, 0.1427, 0.1172, 0.1112, 0.1032, 0.1103, 0.1139, 0.1039, 0.0995, 0.0929, 0.0836, 0.0494, 0.0579, 0.0601, 0.0706, 0.0764, 0.0825, 0.0838, 0.081, 0.0821, 0.1018, 0.1027, 0.1056, 0.0944, 0.0893, 0.0932, 0.082, 0.0821, 0.0811, 0.0827, 0.0876, 0.0962, 0.0898, 0.0923, 0.0997, 0.0888, 0.0906, 0.0813, 0.075, 0.0786, 0.0772, 0.0759, 0.0898, 0.1023, 0.1289, 0.1223, 0.1196, 0.129, 0.1166, 0.1129, 0.1193, 0.1108, 0.1008, 0.1028, 0.0977, 0.1089, 0.1205, 0.1382, 0.1342, 0.1433, 0.1579, 0.137, 0.1416, 0.1252, 0.1262, 0.1308, 0.1456, 0.1467, 0.1467, 0.1243, 0.1234, 0.0998, 0.1187, 0.1338, 0.1119, 0.0919, 0.0937, 0.0696, 0.0444, 0.0317, 0.0399, 0.0312, 0.0225, 0.0359, 0.0531, 0.0543, 0.0531, 0.06, 0.056, 0.0641, 0.0647, 0.0558, 0.0634, 0.0773, 0.0802, 0.0941, 0.0806, 0.0693, 0.0558, 0.0707, 0.0601, 0.0697, 0.0793, 0.0847, 0.0855, 0.081, 0.0892, 0.0727, 0.0611, 0.056, 0.0548, 0.0506, 0.0402, 0.0305, 0.037, 0.0274, 0.0273, 0.0279, 0.0384, 0.0363, 0.0213, 0.0115, 0.0148, 0.0079, 0.0052, 0.0065, 0.0066, 0, 0.0048, 0.0171, 0.0159, 0.0252, 0.022, 0.0343, 0.0377, 0.0372, 0.0336, 0.0388, 0.0247, 0.0282, 0.0249, 0.0198, 0.0257, 0.0309, 0.026, 0.0212, 0.0231, 0.0286, 0.0308, 0.0273, 0.0332, 0.0403, 0.0353]
	},
	{
		"name": "tyl",
		"sequence": [0.0269, 0.036, 0.0405, 0.036, 0.0235, 0.0105, 0.0105, 0.0071, 0.0054, 0.0094, 0.0054, 0.0026, 0.0032, 0, 0.0045, 0.0014, 0.0104, 0.009, 0.0113, 0.0208, 0.0136, 0.0185, 0.018, 0.0285, 0.0271, 0.0253, 0.0393, 0.0365, 0.0349, 0.0355, 0.0318, 0.0213, 0.0271, 0.0235, 0.0276, 0.0251, 0.0226, 0.0215, 0.0193, 0.0231, 0.0284, 0.0258, 0.0321, 0.0446, 0.0514, 0.059, 0.0633, 0.0745, 0.0778, 0.0716, 0.0752, 0.0727, 0.0679, 0.0729, 0.0706, 0.0697, 0.0673, 0.0662, 0.0583, 0.063, 0.0566, 0.051, 0.0562, 0.0396, 0.0462, 0.0557, 0.0592, 0.0608, 0.0623, 0.061, 0.0665, 0.0668, 0.0661, 0.077, 0.0869, 0.0871, 0.0835, 0.0887, 0.0961, 0.1057, 0.1043, 0.1157, 0.1181, 0.1145, 0.1131, 0.1107, 0.1022, 0.0955, 0.0971, 0.0996, 0.0962, 0.1215, 0.1081, 0.1332, 0.1236, 0.104, 0.104, 0.109, 0.1126, 0.1138, 0.1183, 0.1299, 0.1101, 0.1319, 0.134, 0.1246, 0.1103, 0.1016, 0.0957, 0.1012, 0.1105, 0.1197, 0.1366, 0.1393, 0.1287, 0.1267, 0.1251, 0.142, 0.1594, 0.1681, 0.1675, 0.1568, 0.1516, 0.1569, 0.1415, 0.1342, 0.1278, 0.136, 0.144, 0.1697, 0.172, 0.172, 0.1752, 0.1751, 0.1875, 0.2019, 0.2116, 0.2172, 0.2296, 0.218, 0.2156, 0.2161, 0.273, 0.2773, 0.2598, 0.3052, 0.3291, 0.3349, 0.3488, 0.3248, 0.3524, 0.3404, 0.3516, 0.3856, 0.4199, 0.4119, 0.4256, 0.4764, 0.4976, 0.5416, 0.5595, 0.6117, 0.6076, 0.6625, 0.6559, 0.7788, 0.8624, 0.9158, 0.9114, 0.9415, 0.8359, 0.7445, 0.7261, 0.6943, 0.8126, 0.8083, 0.7932, 0.7872, 1, 0.9698, 0.9776]
	},
	{
		"name": "act",
		"sequence": [0.0771, 0.0759, 0.0746, 0.0956, 0.0931, 0.131, 0.137, 0.1626, 0.176, 0.1663, 0.0999, 0.1207, 0.1242, 0.138, 0.1264, 0.1151, 0.1564, 0.1626, 0.1795, 0.1404, 0.1348, 0.1066, 0.0355, 0.0414, 0.033, 0.0329, 0.0241, 0.0141, 0.0198, 0.0168, 0, 0.009, 0.0138, 0.0257, 0.0357, 0.0289, 0.0369, 0.0395, 0.0309, 0.0321, 0.0639, 0.0773, 0.0756, 0.0803, 0.0826, 0.0729, 0.1045, 0.0999, 0.1019, 0.0996, 0.087, 0.0583, 0.0652, 0.0234, 0.0166, 0.0259, 0.0336, 0.0279, 0.032, 0.047, 0.0351, 0.0428, 0.0387, 0.0358, 0.036, 0.034, 0.0494, 0.0546, 0.0623, 0.0541, 0.0493, 0.0458, 0.0482, 0.0357, 0.0307, 0.0295, 0.0171, 0.0089, 0.0053, 0.0183, 0.0204, 0.0234, 0.0184, 0.0199, 0.0246, 0.0212, 0.0215, 0.025, 0.0392, 0.0459, 0.0375, 0.0351, 0.0454, 0.038, 0.033, 0.0243, 0.0243, 0.0202, 0.027, 0.0331, 0.04, 0.03, 0.0244, 0.0314, 0.037, 0.0298, 0.0204, 0.0107, 0.022, 0.0249, 0.0289, 0.0402, 0.0396, 0.0368, 0.0506, 0.0547, 0.057, 0.0624, 0.0535, 0.0642, 0.0743, 0.0693, 0.075, 0.083, 0.0872, 0.0925, 0.0781, 0.0779, 0.0882, 0.0851, 0.1025, 0.1109, 0.1225, 0.134, 0.1399, 0.14, 0.1641, 0.1734, 0.191, 0.1846, 0.1845, 0.1891, 0.1847, 0.1745, 0.1574, 0.1505, 0.1493, 0.1843, 0.2176, 0.2013, 0.2121, 0.2275, 0.2416, 0.2568, 0.26, 0.2683, 0.2602, 0.2618, 0.2568, 0.2847, 0.3393, 0.4096, 0.4214, 0.4536, 0.4573, 0.4926, 0.535, 0.569, 0.5888, 0.6729, 0.8005, 0.7405, 0.7344, 0.7633, 0.8094, 0.7742, 0.8252, 0.8825, 0.8883, 1, 0.9471]
	},
	{
		"name": "msi",
		"sequence": [0.7863, 1, 0.8457, 0.6854, 0.5356, 0.159, 0.1765, 0.1943, 0.1509, 0.1271, 0.0982, 0.0993, 0.1145, 0.0691, 0.0637, 0.0714, 0.0664, 0.0774, 0.09, 0.0824, 0.0717, 0.0763, 0.0773, 0.0683, 0.0581, 0.0563, 0.0634, 0.0705, 0.074, 0.0657, 0.048, 0.0503, 0.0395, 0.0335, 0.0458, 0.0304, 0.0265, 0.0291, 0.0281, 0.0261, 0.0297, 0.0351, 0.0328, 0.0428, 0.05, 0.0594, 0.0624, 0.0622, 0.0775, 0.0886, 0.0836, 0.0874, 0.0964, 0.0874, 0.0737, 0.075, 0.0862, 0.0816, 0.0934, 0.0812, 0.0725, 0.0721, 0.068, 0.0702, 0.0822, 0.0875, 0.1048, 0.109, 0.1099, 0.1106, 0.1221, 0.1132, 0.1139, 0.1061, 0.1151, 0.1058, 0.1043, 0.0987, 0.1142, 0.1179, 0.1275, 0.116, 0.1107, 0.1011, 0.0969, 0.089, 0.084, 0.082, 0.0871, 0.0842, 0.0799, 0.0797, 0.0891, 0.0906, 0.0739, 0.0743, 0.0743, 0.0474, 0.0383, 0.0343, 0.0382, 0.0345, 0.0227, 0.0304, 0.035, 0.0215, 0.011, 0.0047, 0.0054, 0.0054, 0, 0.0042, 0.0119, 0.0151, 0.0185, 0.0216, 0.0217, 0.0301, 0.03, 0.0266, 0.0252, 0.0156, 0.0192, 0.0208, 0.0211, 0.0198, 0.0178, 0.0236, 0.0237, 0.0297, 0.0275, 0.0246, 0.0329, 0.2092, 0.2085, 0.2444, 0.2514, 0.2632, 0.2524, 0.2455, 0.2289, 0.2278, 0.2575, 0.2561, 0.2539, 0.2546, 0.2747, 0.2808, 0.282, 0.2645, 0.2647, 0.266, 0.262, 0.2791, 0.2858, 0.3023, 0.3096, 0.3257, 0.3483, 0.3592, 0.3186, 0.3231, 0.3218, 0.3045, 0.3115, 0.3316, 0.3502, 0.3701, 0.3797, 0.3578, 0.372, 0.3607, 0.3565, 0.3793, 0.3742, 0.3571, 0.3317, 0.3547, 0.3619, 0.3692, 0.3773]
	},
	{
		"name": "azo",
		"sequence": [0.0071, 0.0033, 0.0096, 0.0015, 0.01, 0, 0.0014, 0.0008, 0.0011, 0.008, 0.0064, 0.0109, 0.0067, 0.0054, 0.0101, 0.0156, 0.0185, 0.0259, 0.0424, 0.0405, 0.05, 0.0612, 0.0758, 0.0834, 0.0764, 0.0743, 0.0784, 0.0904, 0.1002, 0.0926, 0.0866, 0.0843, 0.0952, 0.1068, 0.1, 0.0815, 0.0732, 0.0733, 0.0782, 0.0985, 0.1033, 0.0904, 0.1026, 0.1169, 0.1131, 0.1241, 0.1233, 0.1058, 0.1043, 0.1134, 0.1071, 0.1098, 0.1084, 0.0973, 0.0924, 0.0872, 0.0925, 0.1001, 0.1065, 0.1161, 0.1126, 0.1254, 0.1067, 0.1021, 0.1147, 0.118, 0.1263, 0.1214, 0.1026, 0.0986, 0.1123, 0.1168, 0.1268, 0.125, 0.1301, 0.1199, 0.1151, 0.1108, 0.1103, 0.1144, 0.1361, 0.1507, 0.1534, 0.1567, 0.1735, 0.1732, 0.1777, 0.1859, 0.1786, 0.1919, 0.1755, 0.1663, 0.1576, 0.1715, 0.1501, 0.164, 0.164, 0.1652, 0.1559, 0.1538, 0.1654, 0.1751, 0.1658, 0.1813, 0.193, 0.1697, 0.1763, 0.146, 0.1967, 0.1857, 0.2013, 0.2355, 0.2418, 0.2179, 0.2162, 0.2203, 0.2097, 0.208, 0.1897, 0.2108, 0.2279, 0.2228, 0.241, 0.253, 0.273, 0.2828, 0.2867, 0.3175, 0.3145, 0.3465, 0.3611, 0.3976, 0.4197, 0.3877, 0.3951, 0.4213, 0.4361, 0.4555, 0.4569, 0.4412, 0.4773, 0.4977, 0.5051, 0.5131, 0.5074, 0.5458, 0.5903, 0.5858, 0.6266, 0.6, 0.5781, 0.5916, 0.5688, 0.5822, 0.5912, 0.6059, 0.5567, 0.5823, 0.5998, 0.6276, 0.6483, 0.6478, 0.6727, 0.7144, 0.6664, 0.6711, 0.6911, 0.7362, 0.7636, 0.7922, 0.8649, 0.8627, 0.8573, 0.8549, 0.8612, 0.829, 0.8656, 0.8167, 0.8902, 0.9307, 1]
	},
	{
		"name": "rmbs",
		"sequence": [0.2396, 1, 0.9761, 0.7593, 0.5786, 0.3324, 0.2327, 0.2608, 0.2516, 0.1373, 0.1152, 0.1077, 0.1522, 0.1144, 0.0555, 0.0434, 0.0232, 0.0276, 0.0126, 0.0072, 0.011, 0.0136, 0.015, 0.0131, 0.0104, 0.0093, 0.0124, 0.0087, 0.0086, 0, 0.0036, 0.0046, 0.0008, 0.005, 0.0172, 0.0088, 0.0383, 0.0373, 0.0307, 0.0343, 0.0464, 0.0418, 0.0466, 0.0423, 0.0429, 0.0696, 0.0871, 0.0894, 0.091, 0.0951, 0.0804, 0.0488, 0.0516, 0.0458, 0.0427, 0.0293, 0.039, 0.044, 0.0639, 0.0636, 0.0469, 0.0453, 0.0369, 0.034, 0.0378, 0.0312, 0.0304, 0.0215, 0.0269, 0.0291, 0.0427, 0.0407, 0.0845, 0.0906, 0.1185, 0.1168, 0.0678, 0.0629, 0.0455, 0.0396, 0.0449, 0.0419, 0.0612, 0.0499, 0.0487, 0.0532, 0.0577, 0.0528, 0.0497, 0.0467, 0.0317, 0.0369, 0.0505, 0.0528, 0.0514, 0.0566, 0.0566, 0.0517, 0.0469, 0.0646, 0.0634, 0.0557, 0.0503, 0.0419, 0.0454, 0.0294, 0.017, 0.0209, 0.0398, 0.0167, 0.015, 0.018, 0.0265, 0.0297, 0.0382, 0.0432, 0.0504, 0.0447, 0.04, 0.0461, 0.0683, 0.06, 0.06, 0.0597, 0.0674, 0.065, 0.0451, 0.0523, 0.0462, 0.0563, 0.0526, 0.0535, 0.0551, 0.0551, 0.0553, 0.0526, 0.0531, 0.0352, 0.0356, 0.0329, 0.0253, 0.0333, 0.0457, 0.0131, 0.0116, 0.0108, 0.01, 0.0079, 0.0034, 0.0024, 0.0055, 0.0004, 0.0006, 0.0049, 0.0025, 0.0027, 0.0026, 0.0046, 0.0052, 0.0051, 0.0096, 0.0127, 0.0151, 0.019, 0.0137, 0.0178, 0.0156, 0.0151, 0.0181, 0.0162, 0.0172, 0.0224, 0.0269, 0.0269, 0.0343, 0.0249, 0.028, 0.0282, 0.0247, 0.0261, 0.0235]
	},
	{
		"name": "glw",
		"sequence": [0.4677, 0.5711, 0.5895, 0.6002, 0.5864, 0.8039, 0.7151, 1, 0.9081, 0.2295, 0.1743, 0.1569, 0.1688, 0.0781, 0.0585, 0.0624, 0.0531, 0.0463, 0.0431, 0.0319, 0.0221, 0.0198, 0.024, 0.0224, 0.0195, 0.0157, 0.0184, 0.0156, 0.0098, 0.006, 0, 0.0012, 0, 0.0008, 0.0087, 0.0052, 0.0076, 0.0102, 0.013, 0.0117, 0.0175, 0.0177, 0.02, 0.0204, 0.024, 0.0287, 0.0302, 0.0271, 0.0347, 0.0335, 0.0294, 0.0289, 0.0331, 0.0351, 0.033, 0.0261, 0.029, 0.0302, 0.0336, 0.0312, 0.0286, 0.0302, 0.0292, 0.0372, 0.0431, 0.046, 0.0535, 0.0562, 0.0543, 0.0566, 0.0571, 0.0553, 0.0697, 0.0699, 0.0776, 0.0797, 0.0694, 0.0692, 0.0535, 0.0632, 0.0699, 0.0577, 0.0612, 0.0524, 0.0589, 0.0583, 0.0648, 0.0678, 0.0717, 0.0734, 0.0681, 0.0667, 0.0706, 0.0695, 0.0695, 0.0686, 0.0686, 0.0691, 0.0663, 0.0688, 0.0769, 0.0789, 0.0657, 0.0564, 0.058, 0.043, 0.0283, 0.0227, 0.0243, 0.0261, 0.0274, 0.0358, 0.0399, 0.0401, 0.0443, 0.0472, 0.0413, 0.042, 0.0399, 0.0462, 0.0543, 0.0505, 0.0491, 0.057, 0.0541, 0.0485, 0.0446, 0.0506, 0.0431, 0.0511, 0.0511, 0.0492, 0.0543, 0.0631, 0.0657, 0.0583, 0.0593, 0.0568, 0.0507, 0.0438, 0.0411, 0.033, 0.0389, 0.0358, 0.0349, 0.0345, 0.035, 0.0382, 0.0391, 0.0349, 0.0347, 0.0301, 0.0318, 0.0354, 0.0311, 0.0326, 0.0338, 0.0319, 0.0337, 0.0359, 0.0395, 0.0422, 0.0387, 0.0416, 0.0381, 0.0398, 0.0475, 0.0474, 0.0497, 0.0478, 0.0541, 0.0589, 0.0592, 0.0604, 0.0623, 0.0553, 0.059, 0.0544, 0.0577, 0.0595, 0.0653]
	},
	{
		"name": "stm",
		"sequence": [0.8383, 1, 0.9345, 0.9473, 0.2844, 0.3055, 0.2684, 0.2927, 0.2214, 0.2428, 0.1856, 0.1962, 0.2187, 0.1378, 0.152, 0.1841, 0.159, 0.1485, 0.1401, 0.1344, 0.0871, 0.1203, 0.1493, 0.1392, 0.1374, 0.1279, 0.1507, 0.1347, 0.1148, 0.1017, 0.0861, 0.0802, 0.0464, 0.0778, 0.1071, 0.077, 0.0711, 0.0724, 0.0739, 0.0825, 0.0939, 0.0836, 0.0866, 0.1048, 0.1002, 0.1135, 0.1198, 0.1154, 0.1145, 0.1094, 0.0979, 0.0886, 0.0926, 0.0898, 0.0727, 0.0647, 0.0656, 0.0719, 0.0795, 0.076, 0.0628, 0.0682, 0.0624, 0.0499, 0.0569, 0.0588, 0.0655, 0.0619, 0.0656, 0.0615, 0.0672, 0.0693, 0.0715, 0.0639, 0.0713, 0.0708, 0.0611, 0.0594, 0.0537, 0.0616, 0.0655, 0.066, 0.0699, 0.0713, 0.073, 0.0768, 0.0754, 0.0768, 0.0758, 0.0754, 0.065, 0.0663, 0.0629, 0.0647, 0.0551, 0.0504, 0.0504, 0.0408, 0.0386, 0.0318, 0.0362, 0.0439, 0.0301, 0.0338, 0.0443, 0.0293, 0.0195, 0.011, 0.0113, 0.0037, 0, 0.0026, 0.0108, 0.0149, 0.0156, 0.0161, 0.0215, 0.0255, 0.0179, 0.0187, 0.0246, 0.0189, 0.0216, 0.0277, 0.0243, 0.0168, 0.0177, 0.0191, 0.0107, 0.0163, 0.0221, 0.023, 0.0306, 0.0392, 0.0429, 0.0408, 0.038, 0.0344, 0.0282, 0.0177, 0.0113, 0.0105, 0.0127, 0.0096, 0.0076, 0.0114, 0.0152, 0.0191, 0.0068, 0.0034, 0.0051, 0.0047, 0.0076, 0.0049, 0.0074, 0.0098, 0.0143, 0.0214, 0.0179, 0.0167, 0.0216, 0.0248, 0.0232, 0.0209, 0.018, 0.0243, 0.0165, 0.0175, 0.0182, 0.0191, 0.0234, 0.0245, 0.0258, 0.0282, 0.0227, 0.0194, 0.0202, 0.0166, 0.0116, 0.0155, 0.0154]
	},
	{
		"name": "oran",
		"sequence": [0.7363, 0.9268, 1, 0.8941, 0.8125, 0.7974, 0.7179, 0.6374, 0.5782, 0.5907, 0.4594, 0.4631, 0.5017, 0.3125, 0.3005, 0.3864, 0.2861, 0.2431, 0.2258, 0.1528, 0.1472, 0.1795, 0.1878, 0.1942, 0.1476, 0.1131, 0.1379, 0.1037, 0.0697, 0.0141, 0.0451, 0.0338, 0, 0.0276, 0.064, 0.0635, 0.1118, 0.0888, 0.0931, 0.0959, 0.1062, 0.104, 0.1136, 0.1048, 0.0957, 0.1016, 0.111, 0.1271, 0.1343, 0.1218, 0.1098, 0.0998, 0.1015, 0.1136, 0.1044, 0.0978, 0.106, 0.1281, 0.1436, 0.1536, 0.1434, 0.1366, 0.1347, 0.1311, 0.1253, 0.1304, 0.1407, 0.1372, 0.1281, 0.1119, 0.106, 0.1051, 0.093, 0.0874, 0.0912, 0.0961, 0.0948, 0.0876, 0.0956, 0.0903, 0.0961, 0.1125, 0.1123, 0.1219, 0.1226, 0.1183, 0.1143, 0.1312, 0.1397, 0.1206, 0.1188, 0.1373, 0.1557, 0.1766, 0.1822, 0.1686, 0.1686, 0.1668, 0.1557, 0.1565, 0.1433, 0.1392, 0.1333, 0.1442, 0.132, 0.1237, 0.1079, 0.1103, 0.1241, 0.0911, 0.091, 0.0923, 0.0887, 0.0963, 0.0931, 0.1086, 0.1104, 0.1173, 0.1073, 0.1139, 0.1074, 0.0946, 0.097, 0.1003, 0.0884, 0.0713, 0.0608, 0.0823, 0.0784, 0.0856, 0.0995, 0.079, 0.083, 0.0881, 0.0896, 0.0914, 0.0968, 0.0937, 0.0842, 0.0803, 0.0665, 0.0552, 0.0647, 0.0605, 0.0511, 0.0477, 0.0491, 0.0463, 0.0405, 0.0332, 0.0361, 0.0381, 0.0407, 0.0308, 0.0249, 0.0219, 0.0239, 0.026, 0.0164, 0.0187, 0.0217, 0.0184, 0.0145, 0.0169, 0.0187, 0.0325, 0.0397, 0.0353, 0.0316, 0.0318, 0.0321, 0.0454, 0.0537, 0.0534, 0.0519, 0.0505, 0.0482, 0.0457, 0.0524, 0.0618, 0.0585]
	},
	{
		"name": "dcm",
		"sequence": [0.8251, 0.9794, 1, 0.7839, 0.6038, 0.645, 0.5832, 0.6295, 0.6758, 0.5729, 0.5832, 0.3774, 0.4392, 0.3671, 0.4031, 0.4649, 0.421, 0.3529, 0.2782, 0.2385, 0.2595, 0.2899, 0.2698, 0.2319, 0.1977, 0.1946, 0.2817, 0.256, 0.0677, 0.0565, 0.0435, 0.0399, 0.0186, 0.027, 0.0351, 0.0237, 0.0306, 0.027, 0.0268, 0.0376, 0.0417, 0.0429, 0.0484, 0.0629, 0.0555, 0.0426, 0.0423, 0.0476, 0.0406, 0.0372, 0.0438, 0.0332, 0.0256, 0.0229, 0.0183, 0.026, 0.0172, 0.0206, 0.0191, 0.0256, 0.0193, 0.017, 0.016, 0.0097, 0.0076, 0.006, 0.0124, 0.0129, 0.0223, 0.0188, 0.0103, 0.0086, 0.0118, 0.0061, 0.0058, 0.0065, 0.0136, 0.0052, 0.0046, 0.0095, 0.0091, 0.008, 0.0083, 0.0114, 0.0079, 0.0229, 0.0246, 0.0173, 0.0176, 0.0111, 0.0008, 0.0083, 0.003, 0.0049, 0.0116, 0.0141, 0.0141, 0.0108, 0.0048, 0.0082, 0.0051, 0.0119, 0.0049, 0.0144, 0.0103, 0.0116, 0.0095, 0.0161, 0.0307, 0.0184, 0.0089, 0, 0.0014, 0.0066, 0.0046, 0.0041, 0.0089, 0.0114, 0.0039, 0.0072, 0.0017, 0.0064, 0.0094, 0.008, 0.0096, 0.0067, 0.0074, 0.0116, 0.0166, 0.0158, 0.0167, 0.0134, 0.0194, 0.0221, 0.0264, 0.0203, 0.025, 0.0255, 0.0219, 0.0252, 0.0238, 0.0237, 0.0213, 0.0211, 0.0242, 0.0213, 0.0177, 0.0155, 0.0179, 0.012, 0.0154, 0.0157, 0.0173, 0.0129, 0.0039, 0.0042, 0.0039, 0.0078, 0.0093, 0.0063, 0.015, 0.0053, 0.0103, 0.0083, 0.0122, 0.0132, 0.0114, 0.0125, 0.0147, 0.0121, 0.0156, 0.0109, 0.012, 0.0157, 0.0177, 0.02, 0.0187, 0.0159, 0.0166, 0.0101, 0.0049]
	},
	{
		"name": "neu",
		"sequence": [0.0075, 0.006, 0.0057, 0.0058, 0.0045, 0.0043, 0.0031, 0.0032, 0.0017, 0.0031, 0.0014, 0.0017, 0.0032, 0.0021, 0.0018, 0.0017, 0.0011, 0.0015, 0.0018, 0.0013, 0.0003, 0.0004, 0.0002, 0.0004, 0.001, 0.001, 0.001, 0.0011, 0.0007, 0, 0.006, 0.0065, 0.0053, 0.0097, 0.0123, 0.0141, 0.0152, 0.0202, 0.0224, 0.0227, 0.0225, 0.0227, 0.0267, 0.0265, 0.0291, 0.0378, 0.0484, 0.052, 0.0576, 0.0483, 0.0469, 0.044, 0.0476, 0.051, 0.0469, 0.0491, 0.0496, 0.0533, 0.0454, 0.0472, 0.0472, 0.045, 0.044, 0.0347, 0.0316, 0.0346, 0.0395, 0.039, 0.0408, 0.0442, 0.0521, 0.0584, 0.0684, 0.083, 0.1153, 0.1234, 0.1173, 0.1189, 0.1207, 0.1506, 0.1414, 0.1565, 0.1527, 0.1435, 0.1353, 0.1062, 0.0983, 0.1142, 0.116, 0.1173, 0.1125, 0.1132, 0.1197, 0.1305, 0.1303, 0.1353, 0.1353, 0.1312, 0.163, 0.1839, 0.158, 0.1909, 0.1612, 0.1502, 0.1654, 0.1276, 0.091, 0.0806, 0.0841, 0.0757, 0.0833, 0.1072, 0.1533, 0.1768, 0.1639, 0.1844, 0.2028, 0.2272, 0.2284, 0.256, 0.2807, 0.2203, 0.2174, 0.2517, 0.269, 0.2517, 0.2132, 0.2621, 0.2457, 0.2781, 0.29, 0.3079, 0.3019, 0.3105, 0.3136, 0.3877, 0.452, 0.4271, 0.4185, 0.402, 0.411, 0.3721, 0.4762, 0.4854, 0.4859, 0.5305, 0.4473, 0.4596, 0.5478, 0.5123, 0.5315, 0.5642, 0.6042, 0.605, 0.6662, 0.6515, 0.6437, 0.6264, 0.6178, 0.6392, 0.6597, 0.6734, 0.6446, 0.6693, 0.6732, 0.707, 0.7648, 0.7958, 0.8209, 0.8226, 0.9084, 0.9603, 0.9149, 0.9621, 0.9636, 0.951, 1, 0.9363, 0.9535, 0.9676, 0.9917]
	},
	{
		"name": "pcln",
		"sequence": [0.0421, 0.0405, 0.0584, 0.046, 0.0273, 0.0272, 0.0166, 0.0192, 0.0078, 0.0033, 0.0009, 0, 0.001, 0.001, 0.0009, 0.0026, 0.003, 0.0058, 0.0056, 0.0031, 0.0018, 0.0026, 0.0022, 0.0034, 0.0037, 0.002, 0.0029, 0.0028, 0.002, 0.0011, 0.0004, 0.0008, 0.0001, 0.0007, 0.0003, 0.0002, 0, 0, 0.0003, 0.0007, 0.0021, 0.0156, 0.0234, 0.0283, 0.0206, 0.0199, 0.0132, 0.0123, 0.0132, 0.0161, 0.019, 0.017, 0.0185, 0.019, 0.0166, 0.0145, 0.0155, 0.0138, 0.0167, 0.0165, 0.0158, 0.0157, 0.0177, 0.0179, 0.0168, 0.0163, 0.0175, 0.015, 0.0134, 0.0131, 0.0169, 0.0156, 0.0154, 0.0173, 0.0175, 0.0172, 0.0221, 0.0212, 0.019, 0.0238, 0.0263, 0.0289, 0.0283, 0.0314, 0.0307, 0.0379, 0.0386, 0.0403, 0.0449, 0.05, 0.0464, 0.0606, 0.0649, 0.0681, 0.0835, 0.0843, 0.0843, 0.0796, 0.0836, 0.0887, 0.0938, 0.0989, 0.0847, 0.0843, 0.068, 0.0498, 0.0381, 0.0502, 0.0537, 0.0488, 0.062, 0.0575, 0.0711, 0.0807, 0.0818, 0.0952, 0.1133, 0.1221, 0.1161, 0.1579, 0.1611, 0.144, 0.1673, 0.1883, 0.1935, 0.1409, 0.13, 0.1656, 0.2153, 0.2575, 0.2787, 0.2915, 0.2955, 0.317, 0.3359, 0.3749, 0.405, 0.3814, 0.3789, 0.398, 0.3977, 0.3326, 0.3758, 0.3596, 0.3461, 0.392, 0.4643, 0.5315, 0.5636, 0.4632, 0.4922, 0.4901, 0.4477, 0.4584, 0.4248, 0.4912, 0.4594, 0.5077, 0.5104, 0.5097, 0.5155, 0.5956, 0.6125, 0.6489, 0.6955, 0.7493, 0.7811, 0.8839, 0.8616, 0.8487, 1, 0.8835, 0.8582, 0.9479, 0.8918, 0.921, 0.9224, 0.8588, 0.8942, 0.86, 0.8452]
	},
	{
		"name": "brcd",
		"sequence": [0.556, 1, 0.6165, 0.4233, 0.4022, 0.6311, 0.6141, 0.7789, 0.8145, 0.7844, 0.5768, 0.3109, 0.3057, 0.1258, 0.0632, 0.123, 0.1265, 0.1439, 0.1052, 0.0743, 0.0393, 0.076, 0.1048, 0.106, 0.1174, 0.067, 0.0846, 0.0797, 0.0589, 0.0513, 0.0558, 0.0408, 0.0166, 0.0143, 0.0101, 0.0047, 0.0059, 0.0044, 0.0073, 0.0104, 0.0116, 0.0109, 0.0098, 0.01, 0.0085, 0.0132, 0.0116, 0.0105, 0.0126, 0.0146, 0.0135, 0.009, 0.0111, 0.0112, 0.0071, 0.0075, 0.01, 0.014, 0.0145, 0.017, 0.0119, 0.0119, 0.011, 0.0055, 0.004, 0.0038, 0.0059, 0.0043, 0.0045, 0.0033, 0.0056, 0.0045, 0.0064, 0.0087, 0.0136, 0.0118, 0.0116, 0.0117, 0.0122, 0.012, 0.0149, 0.0186, 0.0226, 0.019, 0.0203, 0.0218, 0.0235, 0.0244, 0.0224, 0.0176, 0.0149, 0.0147, 0.0202, 0.0235, 0.0158, 0.0159, 0.0159, 0.0144, 0.0171, 0.0158, 0.0153, 0.0184, 0.0191, 0.0139, 0.0162, 0.0106, 0.0035, 0.0015, 0.0002, 0.0036, 0, 0.0023, 0.0105, 0.0159, 0.0177, 0.0177, 0.0156, 0.0177, 0.0203, 0.0151, 0.0169, 0.0143, 0.0106, 0.0102, 0.013, 0.0093, 0.0083, 0.0076, 0.0078, 0.0108, 0.0125, 0.0077, 0.0088, 0.01, 0.0125, 0.0118, 0.0121, 0.0136, 0.0129, 0.0094, 0.0038, 0.0054, 0.0056, 0.0091, 0.0084, 0.0099, 0.0105, 0.0104, 0.0096, 0.0065, 0.0075, 0.0076, 0.0105, 0.011, 0.0088, 0.0101, 0.0089, 0.0103, 0.0099, 0.0104, 0.0106, 0.0093, 0.0104, 0.0136, 0.0161, 0.0184, 0.0183, 0.021, 0.0213, 0.0229, 0.0237, 0.0273, 0.0228, 0.0221, 0.0224, 0.0225, 0.0271, 0.0283, 0.0278, 0.0298, 0.0316]
	}
]}
