{
	"desc": "one rythym juxtaposed against its complement",
	"scale": {
		"algorithm": "diatonic",
		"frequency": 220,
		"octaves": 2
	},
	"instrument": {
		"waveform": "sin",
		"attack": "40*(1.5+sin((itone/float(ltone))*8*3.14))",
		"decay": 8,
		"amplitude": 0.8
	},
	"rhythm": [
		{
			"algorithm": "expression",
			"expression": ["{'on':105*(1.4+sin((itone/float(ltone))*8*3.14))}", "{'off':105*(1.4+sin((itone/float(ltone))*3*3.14))}"],
			"sequence": "lambda i,l: i<l/2"
		},
		{
			"algorithm": "complement"
		}
	]
}
