{
	"desc": "diatonic scale",
	"scale": {
		"algorithm": "diatonic",
		"octaves": 2
	},
	"instrument": {
		"waveform": "sin",
		"attack": 5,
		"decay": 5,
		"amplitude": 0.8
	},
	"rhythm": [
		{
			"algorithm": "literal",
			"expression": [{"on": 80}, {"off":20}]
		}
	]
}
