{
	"grouping": "global|track",
	"transition": {
		"rhythm": "fixed|linear|linear.uni|linear.poly",
		"rhythmCurve": "^linear$|power[float]|spike[float]",
		"melody": "fade",
		"velocityMin": "[int]",
		"velocityCurve": "^linear$|power[float]|spike[float]"
	}
}
